Cat BA Week 1 Analysis • omia
…
    Skip to contents

      Cat BA Week 1 Analysis

      cat-ba-week1-analysis.Rmd

library(omia)
library(ggplot2)

Data

data(cat_ba_week1)
cat_ba_week1
#> # A tibble: 23 × 3
#>      day date       incidence
#>    <int> <date>         <dbl>
#>  1     1 2024-01-01         1
#>  2     2 2024-01-02         0
#>  3     3 2024-01-03         1
#>  4     4 2024-01-04         4
#>  5     5 2024-01-05         1
#>  6     6 2024-01-06         2
#>  7     7 2024-01-07         0
#>  8     8 2024-01-08         0
#>  9     9 2024-01-09         3
#> 10    10 2024-01-10         2
#> # ℹ 13 more rows

Prepare incidence data

inc <- prep_incidence_data(cat_ba_week1)
inc
#> # A tibble: 23 × 2
#>    date       incidence
#>    <date>         <dbl>
#>  1 2024-01-01         1
#>  2 2024-01-02         0
#>  3 2024-01-03         1
#>  4 2024-01-04         4
#>  5 2024-01-05         1
#>  6 2024-01-06         2
#>  7 2024-01-07         0
#>  8 2024-01-08         0
#>  9 2024-01-09         3
#> 10 2024-01-10         2
#> # ℹ 13 more rows
…
