Advanced count time-series uncertainty and forecast evaluation • omia
…
interpretation of predictive intervals,

rolling-origin backtesting, and

forecast scoring (MAE, RMSE, interval coverage, WIS, CRPS).

It also includes a chain-based simulation comparison using
epichains.

Data and preprocessing

data(cat_ba_week1)
inc <- prep_incidence_data(cat_ba_week1)
inc
#> # A tibble: 23 × 2
#>    date       incidence
#>    <date>         <dbl>
#>  1 2024-01-01         1
#>  2 2024-01-02         0
#>  3 2024-01-03         1
#>  4 2024-01-04         4
#>  5 2024-01-05         1
#>  6 2024-01-06         2
#>  7 2024-01-07         0
#>  8 2024-01-08         0
#>  9 2024-01-09         3
#> 10 2024-01-10         2
#> # ℹ 13 more rows
…
